{
    "application": {
        "id": "",
        "title": "com.capgemini.coe.FAQ.FAQ",
        "type": "SAP_UI5_Component",
        "componentUrl": "/",
        "appUrl": "#FAQ-Display",
        "navigationComponentName": "com.capgemini.coe.FAQ",
        "intentSemanticObject": "FAQ",
        "intentAction": "Display",
        "html5ApplicationName": "faq",
        "HCPParentApplicationName": ""
    },
    "assignment": {
        "groups": [
            "5df8b5ce-4525-4e86-9e7c-c8c4df2f37dd"
        ],
        "contentPackages": [
            "287c02c0-9b39-4517-a499-ffc9cd9b3767"
        ],
        "categories": []
    },
    "tile": {
        "type": "StaticTile",
        "title": "FAQ",
        "subtitle": "Subtitle",
        "searchKeywords": "FAQ,Subtitle",
        "displayIconUrl": "sap-icon://approvals",
        "displayInfoText": "",
        "size": "1x1",
        "serviceURL": "",
        "refreshInterval": ""
    }
}